10 Exploring Patterns with feasts and fabletools – Timeseries Analysis - the Tidyverse Way
…
Another crucial property of time series is autocorrelation. Simply put, autocorrelation measures the relationship between a value in a series and its past values (called “lags”). For example, is today;s sales figure correlated with the sales figure from the same quarter last year? This is a key concept for building effective forecasting models.

The feasts package provides two very useful functions, ACF (Autocorrelation Function) and PACF() (Partial Autocorrelation Function) to do this. Below, we see how to check autocorrelation for our Sales series.

10.2.1 Autocorrelation Function (ACF)

The ACF measures the correlation between a time series \(y_{t}\) and its past values \(y_{t-k}\) (where \(k\) is the lag) at all observed lags, without isolating the effect of intermediate lags. High autocorrelation at a seasonal lag (e.g. lag 12 for monthly data) is a strong indicator of seasonality. We use the ACF() function to calculate these correlations for the Sales series

# compute the Autocorrelation for Sales
sales_acf <- sales_ts |> 
  ACF(Sales)

sales_acf

# A tsibble: 17 x 2 [1M]
       lag      acf
  <cf_lag>    <dbl>
1       1M -0.0897 
2       2M  0.0896 
3       3M -0.271  
4       4M -0.00704
5       5M -0.191  
# ℹ 12 more rows
…
Sales at lag 1 are correlated with sales at lag2.

Sales at lag 2 are correlated with sales at lag 3.

The PACF cuts through this chain and asks: “If I already know the values at lags 1 and 2, does lag 3 still provide new, direct information today?

The PACF() function is used to calculate the partial autocorrelations.

# compute the Partial Autocorrelation for Sales
sales_pacf <- sales_ts |> 
  PACF(Sales, lag_max = 20) 

sales_pacf

# A tsibble: 20 x 2 [1M]
       lag    pacf
  <cf_lag>   <dbl>
1       1M -0.0897
2       2M  0.0822
3       3M -0.260 
4       4M -0.0571
5       5M -0.170 
# ℹ 15 more rows
…
The most common feature to compute is the seasonal strength, which measures quantitatively how dominant the recurring patterns are compared to the overall trend and random noise. This is typically done using the STL decomposition. We demonstrate this with the tsibbledata::aus_production tsibble dataset which contains the quarterly production of selected commodities in Australia.

# convert wide data to long 
aus_prod_long <- aus_production |> 
  pivot_longer(cols = -Quarter, names_to = 'Product', values_to = 'Quantity')

# calculate seasonal strength and other key features
aus_prod_features <- aus_prod_long |> 
  features(Quantity, features = feat_stl)

# Display seasonal and trend metrics
aus_prod_features |> 
  select(Product, contains(c('seasonal', 'trend')))

# A tibble: 6 × 5
  Product     seasonal_strength_year seasonal_peak_year seasonal_trough_year
  <chr>                        <dbl>              <dbl>                <dbl>
1 Beer                         0.952                  0                    2
2 Bricks                       0.859                  3                    1
3 Cement                       0.834                  3                    1
4 Electricity                  0.906                  3                    1
5 Gas                          0.981                  3                    1
# ℹ 1 more row
# ℹ 1 more variable: trend_strength <dbl>
…
features = ~quantile(., na.rm=TRUE) defines a custom function to run on the Quantity values. The ~ symbol creates the lambda expression and the . refers to the vector of time series values. This is a compact way of calculating the \(0^{th}\), \(25^{th}\), \(50^{th}\), \(75^{th}\) and \(100^{th}\) percentiles for each Product series, giving insight into its distribution and volatility range.

Multiple Custom Features (List of Functions)

You can also calculate several custom features simultaneously by passing a named list of functions to the features argument.

# for multiple custom features create a list of functions 
cent_tend_features <- gh_ts |> 
  features(value, features = list(sd = ~sd(., na.rm=T), median = ~median(., na.rm=T), mean = ~mean(., na.rm=T)))
cent_tend_features

# A tibble: 22 × 4
  indicator_name                            sd     median       mean
  <chr>                                  <dbl>      <dbl>      <dbl>
1 Annual GDP growth rate                 4.20        4.40       3.71
2 Annual population groeth rate          0.290       2.46       2.50
3 Cereal yield _kg per hectare         476.       1141.      1249.  
4 Crude death rate_per 1000 people       4.18       11.4       12.6 
5 Female population                4132889.    8127176    8926929.  
# ℹ 17 more rows
…
