7 Using Lubridate for Date Manipulation – Timeseries Analysis - the Tidyverse Way
…
# Different date formats parsed easily
date1 <- ymd("2023-03-15")        # Year-Month-Day
date2 <- dmy("15/03/2023")        # Day-Month-Year  
date3 <- mdy("March 15, 2023")    # Month-Day-Year
date4 <- dmy("15-Mar-2023")       # Day-Month-Year with text month

date1, date2, date3 and date4 all produces the same results thanks to lubridate’s intuitive functions ymd, dmy, and mdy.

7.2 Working with Real Data

We will use the pedestrian dataset from the tsibble package which contains hourly pedestrian counts from sensors around Melbourne in Australia. We will practice our lubridate skills on this data.

head(pedestrian)
## # A tsibble: 6 x 5 [1h] <Australia/Melbourne>
## # Key:       Sensor [1]
##   Sensor         Date_Time           Date        Time Count
##   <chr>          <dttm>              <date>     <int> <int>
## 1 Birrarung Marr 2015-01-01 00:00:00 2015-01-01     0  1630
## 2 Birrarung Marr 2015-01-01 01:00:00 2015-01-01     1   826
## 3 Birrarung Marr 2015-01-01 02:00:00 2015-01-01     2   567
## 4 Birrarung Marr 2015-01-01 03:00:00 2015-01-01     3   264
## 5 Birrarung Marr 2015-01-01 04:00:00 2015-01-01     4   139
## # ℹ 1 more row
…
