14 Simple Forecasting Models – Timeseries Analysis - the Tidyverse Way
…
This philosophy is simple: start basic, establish benchmarks, then gradually increase complexity only when it demonstrably improve performance.

14.1 Understanding and Fitting Benchmark Models

Benchmark models are simple, non-complex forecasting techniques used as baseline to evaluate the performance of more sophisticated models. Let us first understand the three fundamental benchmark models we shall be working with.

# create a simple example to illustrate models
example_data <- tibble(
  Period = 1:12,
  Expenditure = c(100, 110, 120, 130, 125, 135, 140, 150, 145, 155, 160, 170)
)
head(example_data)

# A tibble: 6 × 2
  Period Expenditure
   <int>       <dbl>
1      1         100
2      2         110
3      3         120
4      4         130
5      5         125
# ℹ 1 more row
…
The output (simple_models) is a mable (model table), a special type of tibble data structure that stores one or more fitted models for a time series data. Each of the columns represent and contain the fitted model object. If the time series tsibble contains unique keys, the rows inside the mable would represent those keys.

14.1.2 Understanding Model Components

To assess how well a model captures the historical pattern, we extract its fitted values and residuals using the augment() function. Let us now examine what each model has learned from our data

# extract components and parameters from each model
model_components <- simple_models |> 
  augment()

# View the first few rows of the model components
model_components 

# A tsibble: 126 x 6 [1M]
# Key:       .model [3]
  .model    Month Sales .fitted .resid .innov
  <chr>     <mth> <dbl>   <dbl>  <dbl>  <dbl>
1 mean   2015 Jan 29167  28745.   422.   422.
2 mean   2015 Feb 43929  28745. 15184. 15184.
3 mean   2015 Mar 37679  28745.  8934.  8934.
4 mean   2015 Apr 37457  28745.  8712.  8712.
5 mean   2015 May 36575  28745.  7830.  7830.
# ℹ 121 more rows
…
After fitting the benchmark models to the training data, the net critical step is to generate future predictions and visualise these forecasts along with their associated uncertainty (prediction intervals).

14.2.1 Generating Forecasts

We will now generate forecasts from our simple models. The primary function that will help us do this is forecast(), which is part of the fabletools package.

# generate forecast for the next 12 months
simple_forecasts <- simple_models |> 
  forecast(h = 12)

# display the forecasts
simple_forecasts

# A fable: 36 x 4 [1M]
# Key:     .model [3]
  .model    Month
  <chr>     <mth>
1 mean   2018 Jul
2 mean   2018 Aug
3 mean   2018 Sep
4 mean   2018 Oct
5 mean   2018 Nov
# ℹ 31 more rows
# ℹ 2 more variables: Sales <dist>, .mean <dbl>

forecast(h = 8) generates 12 periods (months) into the future (from July 2018 to June 2019), starting from where the data ended in June 2018. The output includes point forecasts and the distribution forecasts (uncertainty). The output simple_forecasts is a fable (forecast table), which is a special tsibble data structure for representing forecasts. Each row in the fable represents a forecast for a specific time point.

The .mean column is the point forecast (expected future value) which is 28,745 for all periods in the mean model because the mean model predicts the same value for every future point, 15,383 for all periods in the naive model because it just repeats the last observed value for every future period (random walk) and the last 12 Sales values (seasonal period) repeated from the original series data for the seasonal naive model.

The Sales column is the distribution object representing the forecasts and its uncertainty \(N(Mean, \sigma^2)\). For instance the distribution for the first prediction by the mean model is N(28745, 1e+08), this means a normal distribution with a point forecast of 28745 and variance of 100000000 (sd = 10000). The uncertainty in the distribution is the same for all the mean and seasonal naive models but increases with increasing forecast horizon for the naive model.

14.2.2 Prediction Intervals with hilo()

By default the forecast table does not explicitly show prediction intervals but they are calculated internally. We can display them using the hilo() function from fabletools. The intervals are also automatically added when we plot the forecast with autoplot()

# add prediction intervals to the forecast table
simple_forecasts |> hilo(level = 95)

# A tsibble: 36 x 5 [1M]
# Key:       .model [3]
  .model    Month
  <chr>     <mth>
1 mean   2018 Jul
2 mean   2018 Aug
3 mean   2018 Sep
4 mean   2018 Oct
5 mean   2018 Nov
# ℹ 31 more rows
# ℹ 3 more variables: Sales <dist>, .mean <dbl>, `95%` <hilo>
…
