5 Dealing with Time Gaps and Irregularities – Timeseries Analysis - the Tidyverse Way
…
5.1 Why Time Gaps Matter

Many time series models and visualisations assume regular spaced data. Gaps can lead to errors, misleading plots and inaccurate forecasts.

5.2 How tsibble Helps

We can check the time gaps in our tsibble using the scan_gaps function from the tsibble package. This is a very handy function that compares our actual data against a complete regular timeline and tells us exactly what is missing. Other equally useful functions for handling time gaps include count_gaps and has_gaps.

We will scan our gh_ts tsibble to check if there are gaps. But before that, we will fix the column names with janitor::clean_names() to avoid complications later on in our analysis due to the unconventional column names.

gh_ts <- gh_ts |> 
  janitor::clean_names() 

gh_ts |> scan_gaps()
## # A tsibble: 512,864 x 2 [1D]
## # Key:       indicator_name [22]
##   indicator_name         date      
##   <chr>                  <date>    
## 1 Annual GDP growth rate 1960-01-02
## 2 Annual GDP growth rate 1960-01-03
## 3 Annual GDP growth rate 1960-01-04
## 4 Annual GDP growth rate 1960-01-05
## 5 Annual GDP growth rate 1960-01-06
## # ℹ 512,859 more rows
…
# simulate data with missing dates for different products
sales_data_gaps <- tsibble(
  Product = c(rep('Smart Phone', 10), rep('Laptop', 8)),
  Sales = round(c(rnorm(10,300,65), runif(8, 620, 1000))),
  Date = c(
    sales_period[c(1:5,8:12)],      # Smart phone is missing Jun & Jul
    sales_period[c(2,3,4,5,6,9:11)] # Laptop is missing Jan, Jul, Aug & Dec
  ),
  index = Date,
  key = Product
)

print(sales_data_gaps)
## # A tsibble: 18 x 3 [1M]
## # Key:       Product [2]
##   Product Sales     Date
##   <chr>   <dbl>    <mth>
## 1 Laptop    771 2025 Feb
## 2 Laptop    923 2025 Mar
## 3 Laptop    699 2025 Apr
## 4 Laptop    670 2025 May
## 5 Laptop    968 2025 Jun
## # ℹ 13 more rows
…
